{
    "version": "1.0.0",
    "summary": "helpful summary of your project, less than 80 characters",
    "repository": "https://github.com/user/project.git",
    "license": "BSD3",
    "source-directories": [
        "src"
    ],
    "exposed-modules": [],
    "dependencies": {
        "elm-lang/core": "5.0.0 <= v < 6.0.0",
        "elm-lang/dom": "1.1.1 <= v < 2.0.0",
        "elm-lang/html": "2.0.0 <= v < 3.0.0",
        "elm-lang/navigation": "2.1.0 <= v < 3.0.0",
        "evancz/elm-markdown": "3.0.2 <= v < 4.0.0",
        "evancz/url-parser": "2.0.1 <= v < 3.0.0"
    },
    "elm-version": "0.18.0 <= v < 0.19.0",
	"homepage": "https://m-burg.gitlab.io/elm-todo-pwa"
}
